{
    "tag": "bye",
    "patterns": [
        "have a nice day",
        "see you later",
        "bye",
        "tschüss"
    ],
    "responses": [
        "bye",
        "Tschau",
        "Tschüss"
    ]
}